R for Scientific Visualization, Collaboration and Thinking - 1 Data visualization
…
Load the exscidata package

2

Retrieve the data from the exscidata package

3

select variables based on names

4

Print the resulting data frame.

# A tibble: 80 × 4
   participant time  multiple single
   <chr>       <chr> <chr>    <chr> 
 1 FP28        pre   L        R     
 2 FP40        pre   R        L     
 3 FP21        pre   R        L     
 4 FP34        pre   R        L     
 5 FP23        pre   R        L     
 6 FP26        pre   R        L     
 7 FP36        pre   L        R     
 8 FP38        pre   R        L     
 9 FP25        pre   R        L     
10 FP19        pre   L        R     
# ℹ 70 more rows

The above means a lot of work writing all columns names in the select call. An alternative approach is to select variables based on the first and last variable in a sequence. This is possible by using the syntax <first column>:<last column>.

exscidata::dxadata |>  
1  select(participant:weight) |>
  print() 

1

Selecting by a first and last column in a sequence.

# A tibble: 80 × 9
   participant time  multiple single sex    include   age height weight
   <chr>       <chr> <chr>    <chr>  <chr>  <chr>   <dbl>  <dbl>  <dbl>
 1 FP28        pre   L        R      female incl     24.5   170    66.5
 2 FP40        pre   R        L      female incl     22.1   175    64  
 3 FP21        pre   R        L      male   incl     26.8   184    85  
 4 FP34        pre   R        L      female incl     23.1   164    53  
 5 FP23        pre   R        L      male   incl     24.8   176.   68.5
 6 FP26        pre   R        L      female excl     24.2   163    56  
 7 FP36        pre   L        R      female incl     20.5   158    60.5
 8 FP38        pre   R        L      female incl     20.6   181    83.5
 9 FP25        pre   R        L      male   incl     37.4   183    65  
10 FP19        pre   L        R      male   incl     22.3   178.   73.5
# ℹ 70 more rows
…
exscidata::dxadata |>  
2  select(participant:weight, contains("lean.")) |>
  print() 

1

Using starts_with to select all columns that starts with lean.

2

Using containsto select all variables that contains lean.

# A tibble: 80 × 23
   participant time  multiple single sex    include   age height weight
   <chr>       <chr> <chr>    <chr>  <chr>  <chr>   <dbl>  <dbl>  <dbl>
 1 FP28        pre   L        R      female incl     24.5   170    66.5
 2 FP40        pre   R        L      female incl     22.1   175    64  
 3 FP21        pre   R        L      male   incl     26.8   184    85  
 4 FP34        pre   R        L      female incl     23.1   164    53  
 5 FP23        pre   R        L      male   incl     24.8   176.   68.5
 6 FP26        pre   R        L      female excl     24.2   163    56  
 7 FP36        pre   L        R      female incl     20.5   158    60.5
 8 FP38        pre   R        L      female incl     20.6   181    83.5
 9 FP25        pre   R        L      male   incl     37.4   183    65  
10 FP19        pre   L        R      male   incl     22.3   178.   73.5
# ℹ 70 more rows
# ℹ 14 more variables: lean.left_arm <dbl>, lean.left_leg <dbl>,
#   lean.left_body <dbl>, lean.left_whole <dbl>, lean.right_arm <dbl>,
#   lean.right_leg <dbl>, lean.right_body <dbl>, lean.right_whole <dbl>,
#   lean.arms <dbl>, lean.legs <dbl>, lean.body <dbl>, lean.android <dbl>,
#   lean.gynoid <dbl>, lean.whole <dbl>
# A tibble: 80 × 23
   participant time  multiple single sex    include   age height weight
   <chr>       <chr> <chr>    <chr>  <chr>  <chr>   <dbl>  <dbl>  <dbl>
 1 FP28        pre   L        R      female incl     24.5   170    66.5
 2 FP40        pre   R        L      female incl     22.1   175    64  
 3 FP21        pre   R        L      male   incl     26.8   184    85  
 4 FP34        pre   R        L      female incl     23.1   164    53  
 5 FP23        pre   R        L      male   incl     24.8   176.   68.5
 6 FP26        pre   R        L      female excl     24.2   163    56  
 7 FP36        pre   L        R      female incl     20.5   158    60.5
 8 FP38        pre   R        L      female incl     20.6   181    83.5
 9 FP25        pre   R        L      male   incl     37.4   183    65  
10 FP19        pre   L        R      male   incl     22.3   178.   73.5
# ℹ 70 more rows
# ℹ 14 more variables: lean.left_arm <dbl>, lean.left_leg <dbl>,
#   lean.left_body <dbl>, lean.left_whole <dbl>, lean.right_arm <dbl>,
#   lean.right_leg <dbl>, lean.right_body <dbl>, lean.right_whole <dbl>,
#   lean.arms <dbl>, lean.legs <dbl>, lean.body <dbl>, lean.android <dbl>,
#   lean.gynoid <dbl>, lean.whole <dbl>

There are other select helper functions such as ends_with and matches that work in a similar fashion as the above. all_of and any_of helps you select variables based on a vector of variables, where selects based on where a function of your choosing returns true. See ?select for a complete list.

In a select call we can also rename variables using the syntax <new name> = <old name>. Let’s say we want to select and rename participant:

exscidata::dxadata |>  
  select(parti = participant, time:weight, starts_with("lean.")) |> 
  print() 

# A tibble: 80 × 23
   parti time  multiple single sex    include   age height weight lean.left_arm
   <chr> <chr> <chr>    <chr>  <chr>  <chr>   <dbl>  <dbl>  <dbl>         <dbl>
 1 FP28  pre   L        R      female incl     24.5   170    66.5          1987
 2 FP40  pre   R        L      female incl     22.1   175    64            1931
 3 FP21  pre   R        L      male   incl     26.8   184    85            2884
 4 FP34  pre   R        L      female incl     23.1   164    53            1753
 5 FP23  pre   R        L      male   incl     24.8   176.   68.5          2652
 6 FP26  pre   R        L      female excl     24.2   163    56            2425
 7 FP36  pre   L        R      female incl     20.5   158    60.5          1913
 8 FP38  pre   R        L      female incl     20.6   181    83.5          2266
 9 FP25  pre   R        L      male   incl     37.4   183    65            3066
10 FP19  pre   L        R      male   incl     22.3   178.   73.5          3760
# ℹ 70 more rows
# ℹ 13 more variables: lean.left_leg <dbl>, lean.left_body <dbl>,
#   lean.left_whole <dbl>, lean.right_arm <dbl>, lean.right_leg <dbl>,
#   lean.right_body <dbl>, lean.right_whole <dbl>, lean.arms <dbl>,
#   lean.legs <dbl>, lean.body <dbl>, lean.android <dbl>, lean.gynoid <dbl>,
#   lean.whole <dbl>

Notice how different ways of selecting variables can be combined in select.

The rename function makes it easy to rename variables without the need to select.

exscidata::dxadata |>  
  select(participant:weight, starts_with("lean.")) |> 
  rename(parti = participant) |>
  print() 

# A tibble: 80 × 23
   parti time  multiple single sex    include   age height weight lean.left_arm
   <chr> <chr> <chr>    <chr>  <chr>  <chr>   <dbl>  <dbl>  <dbl>         <dbl>
 1 FP28  pre   L        R      female incl     24.5   170    66.5          1987
 2 FP40  pre   R        L      female incl     22.1   175    64            1931
 3 FP21  pre   R        L      male   incl     26.8   184    85            2884
 4 FP34  pre   R        L      female incl     23.1   164    53            1753
 5 FP23  pre   R        L      male   incl     24.8   176.   68.5          2652
 6 FP26  pre   R        L      female excl     24.2   163    56            2425
 7 FP36  pre   L        R      female incl     20.5   158    60.5          1913
 8 FP38  pre   R        L      female incl     20.6   181    83.5          2266
 9 FP25  pre   R        L      male   incl     37.4   183    65            3066
10 FP19  pre   L        R      male   incl     22.3   178.   73.5          3760
# ℹ 70 more rows
# ℹ 13 more variables: lean.left_leg <dbl>, lean.left_body <dbl>,
#   lean.left_whole <dbl>, lean.right_arm <dbl>, lean.right_leg <dbl>,
#   lean.right_body <dbl>, lean.right_whole <dbl>, lean.arms <dbl>,
#   lean.legs <dbl>, lean.body <dbl>, lean.android <dbl>, lean.gynoid <dbl>,
#   lean.whole <dbl>

If we want to change the order of variables in a data set we can specify the order in a select call, or use relocate

exscidata::dxadata |>  
  select(participant:weight, starts_with("lean.")) |> 
  relocate(lean.whole) |>
  print() 

# A tibble: 80 × 23
   lean.whole participant time  multiple single sex    include   age height
        <dbl> <chr>       <chr> <chr>    <chr>  <chr>  <chr>   <dbl>  <dbl>
 1      39910 FP28        pre   L        R      female incl     24.5   170 
 2      43088 FP40        pre   R        L      female incl     22.1   175 
 3      58976 FP21        pre   R        L      male   incl     26.8   184 
 4      37934 FP34        pre   R        L      female incl     23.1   164 
 5      47837 FP23        pre   R        L      male   incl     24.8   176.
 6      44783 FP26        pre   R        L      female excl     24.2   163 
 7      38216 FP36        pre   L        R      female incl     20.5   158 
 8      48045 FP38        pre   R        L      female incl     20.6   181 
 9      54710 FP25        pre   R        L      male   incl     37.4   183 
10      58740 FP19        pre   L        R      male   incl     22.3   178.
# ℹ 70 more rows
# ℹ 14 more variables: weight <dbl>, lean.left_arm <dbl>, lean.left_leg <dbl>,
#   lean.left_body <dbl>, lean.left_whole <dbl>, lean.right_arm <dbl>,
#   lean.right_leg <dbl>, lean.right_body <dbl>, lean.right_whole <dbl>,
#   lean.arms <dbl>, lean.legs <dbl>, lean.body <dbl>, lean.android <dbl>,
#   lean.gynoid <dbl>

relocate puts the selected variable as the first column in the data set. If we want to specify the location we can use the arguiments .before or .after.

exscidata::dxadata |>  
  select(participant:weight, starts_with("lean.")) |> 
  relocate(lean.whole, .after = sex) |>
  print() 

# A tibble: 80 × 23
   participant time  multiple single sex    lean.whole include   age height
   <chr>       <chr> <chr>    <chr>  <chr>       <dbl> <chr>   <dbl>  <dbl>
 1 FP28        pre   L        R      female      39910 incl     24.5   170 
 2 FP40        pre   R        L      female      43088 incl     22.1   175 
 3 FP21        pre   R        L      male        58976 incl     26.8   184 
 4 FP34        pre   R        L      female      37934 incl     23.1   164 
 5 FP23        pre   R        L      male        47837 incl     24.8   176.
 6 FP26        pre   R        L      female      44783 excl     24.2   163 
 7 FP36        pre   L        R      female      38216 incl     20.5   158 
 8 FP38        pre   R        L      female      48045 incl     20.6   181 
 9 FP25        pre   R        L      male        54710 incl     37.4   183 
10 FP19        pre   L        R      male        58740 incl     22.3   178.
# ℹ 70 more rows
# ℹ 14 more variables: weight <dbl>, lean.left_arm <dbl>, lean.left_leg <dbl>,
#   lean.left_body <dbl>, lean.left_whole <dbl>, lean.right_arm <dbl>,
#   lean.right_leg <dbl>, lean.right_body <dbl>, lean.right_whole <dbl>,
#   lean.arms <dbl>, lean.legs <dbl>, lean.body <dbl>, lean.android <dbl>,
#   lean.gynoid <dbl>

1.2.2.2 Creating new variables

mutate let’s us create new variables in a data set. These can be a function of variables already in the data set or created from your input.

Let’s create a variable representing the percentage of lean mass to body mass.

exscidata::dxadata |>  
  select(participant:weight, starts_with("lean.")) |> 
  mutate(rel_lean_whole = 100 * ((lean.whole/1000) / weight)) |>
  relocate(rel_lean_whole) |>
  print() 

# A tibble: 80 × 24
   rel_lean_whole participant time  multiple single sex    include   age height
            <dbl> <chr>       <chr> <chr>    <chr>  <chr>  <chr>   <dbl>  <dbl>
 1           60.0 FP28        pre   L        R      female incl     24.5   170 
 2           67.3 FP40        pre   R        L      female incl     22.1   175 
 3           69.4 FP21        pre   R        L      male   incl     26.8   184 
 4           71.6 FP34        pre   R        L      female incl     23.1   164 
 5           69.8 FP23        pre   R        L      male   incl     24.8   176.
 6           80.0 FP26        pre   R        L      female excl     24.2   163 
 7           63.2 FP36        pre   L        R      female incl     20.5   158 
 8           57.5 FP38        pre   R        L      female incl     20.6   181 
 9           84.2 FP25        pre   R        L      male   incl     37.4   183 
10           79.9 FP19        pre   L        R      male   incl     22.3   178.
# ℹ 70 more rows
# ℹ 15 more variables: weight <dbl>, lean.left_arm <dbl>, lean.left_leg <dbl>,
#   lean.left_body <dbl>, lean.left_whole <dbl>, lean.right_arm <dbl>,
#   lean.right_leg <dbl>, lean.right_body <dbl>, lean.right_whole <dbl>,
#   lean.arms <dbl>, lean.legs <dbl>, lean.body <dbl>, lean.android <dbl>,
#   lean.gynoid <dbl>, lean.whole <dbl>
…
exscidata::dxadata |>  
1  select(participant, multiple, single) |>
2  pivot_longer(values_to = "leg", names_to = "volume",  cols = multiple:single) %>%
  print()

1

Selecting our variables of interest

2

Creating a long data set based on volume data spread over two columns.

# A tibble: 160 × 3
   participant volume   leg  
   <chr>       <chr>    <chr>
 1 FP28        multiple L    
 2 FP28        single   R    
 3 FP40        multiple R    
 4 FP40        single   L    
 5 FP21        multiple R    
 6 FP21        single   L    
 7 FP34        multiple R    
 8 FP34        single   L    
 9 FP23        multiple R    
10 FP23        single   L    
# ℹ 150 more rows

As we see we now have a long data set, but it is longer than expected. The original data contains only 41 participants. As each participant has two legs we would expect 82 observations. Above we did not remove post-intervention observations and we therefore have several duplicates. This can be taken care of by using the distinct function which returns unique observations across a combination of variables.

participant_volume <- exscidata::dxadata |>  
  select(participant, multiple, single) |> # 
  pivot_longer(values_to = "leg", names_to = "volume",  cols = multiple:single) %>%
1  distinct(participant, volume, leg) %>%
  print()

1

Removes all duplicate combinations of participant, volume and leg.

# A tibble: 82 × 3
   participant volume   leg  
   <chr>       <chr>    <chr>
 1 FP28        multiple L    
 2 FP28        single   R    
 3 FP40        multiple R    
 4 FP40        single   L    
 5 FP21        multiple R    
 6 FP21        single   L    
 7 FP34        multiple R    
 8 FP34        single   L    
 9 FP23        multiple R    
10 FP23        single   L    
# ℹ 72 more rows

We can save our smaller data set as participant_volume

Next we want to create a data set of right and left leg lean mass data. We will start by selecting variables.

exscidata::dxadata |>  
  select(participant, time, starts_with("lean.") & ends_with("_leg")) |> #
  print()

# A tibble: 80 × 4
   participant time  lean.left_leg lean.right_leg
   <chr>       <chr>         <dbl>          <dbl>
 1 FP28        pre            7059           7104
 2 FP40        pre            7190           7506
 3 FP21        pre           10281          10200
 4 FP34        pre            6014           6009
 5 FP23        pre            8242           8685
 6 FP26        pre            7903           7841
 7 FP36        pre            6829           6950
 8 FP38        pre            8889           8923
 9 FP25        pre            9664           9198
10 FP19        pre            9704           9806
# ℹ 70 more rows
…
  print()

1

Notice how select helpers can be used in pivot_longer.

2

We use mutate together with if_else to change the leg indicator to R and L

3

We save the data set as leg_leanmass

# A tibble: 160 × 5
   participant time  include leg   lean_mass
   <chr>       <chr> <chr>   <chr>     <dbl>
 1 FP28        pre   incl    L          7059
 2 FP28        pre   incl    R          7104
 3 FP40        pre   incl    L          7190
 4 FP40        pre   incl    R          7506
 5 FP21        pre   incl    L         10281
 6 FP21        pre   incl    R         10200
 7 FP34        pre   incl    L          6014
 8 FP34        pre   incl    R          6009
 9 FP23        pre   incl    L          8242
10 FP23        pre   incl    R          8685
# ℹ 150 more rows
…
1

Pivot wider creates new columns based on names in time and values in lean_mass

2

The new variables is calculated as the difference between pre and post-intervention values.

# A tibble: 82 × 6
   participant include leg     pre  post delta_lean_mass
   <chr>       <chr>   <chr> <dbl> <dbl>           <dbl>
 1 FP28        incl    L      7059  7273             214
 2 FP28        incl    R      7104  7227             123
 3 FP40        incl    L      7190  7192               2
 4 FP40        incl    R      7506  7437             -69
 5 FP21        incl    L     10281 10470             189
 6 FP21        incl    R     10200 10819             619
 7 FP34        incl    L      6014  6326             312
 8 FP34        incl    R      6009  6405             396
 9 FP23        incl    L      8242  8687             445
10 FP23        incl    R      8685  8480            -205
# ℹ 72 more rows
…
